%{
int year = 0;
%}

%%

{YEAR3}[ \t]*{COUNTYNEW}[ \t]*{NUMBER}  {
                                          year = atoi(YEAR3);
                                          printf("%d\n", (182 - year)); }
{YEAR2}[ \t]*{COUNTYOLD}[ \t]*{NUMBER}  {
                                          year = atoi(YEAR2);
                                          if(YEAR2 < 13)
                                            printf("%d", (18 - year));
                                          else
                                            printf("%d", (2018 - (1900 + year)));}
.                                       {printf("INVALID");}

%%

int main()
{
  yylex();
  return 0;
}


