%{
    int currentyear = 2018;
    int year = 0;
    char num [2];
%}

PREVYEARS = [8][7-9])|([9|0][0-9])|([1][0-2]
RECENTYEARS = [1][3-8][1|2]
COUNTIESONE = C|CE|CN|CW|D|DL|G|KE|KK|KY|L|LK|LD|LH|LM|LS|MH|MN|MO|OY|RN|SO|TN|TS|W|WD|WH|WX|WW
COUNTIESTWO = C|CE|CN|CW|D|DL|G|KE|KK|KY|L|LD|LH|LM|LS|MH|MN|MO|OY|RN|SO|T|W|WH|WX|WW
	

%%  
{PREVYEARS}   {printf("Years 1");} 
{RECENTYEARS} {printf("Years 2");}
{COUNTIESONE}   {printf("cunt1");} 
{COUNTIESTWO} {printf("cunt2");}
%%

int main()
{
  yylex();
  return 0;
}
