%{
    int currentyear = 2018;
    int year = 0;
    char num [2];
%}

PREVYEARS [8][7-9]|[9|0][0-9]|[1][0-2]
RECENTYEARS [1][3-8][1|2]
COUNTIES1 C|CE|CN|CW|D|DL|G|KE|KK|KY|L|LK|LD|LH|LM|LS|MH|MN|MO|OY|RN|SO|TN|TS|W|WD|WH|WX|WW 
COUNTIES2 C|CE|CN|CW|D|DL|G|KE|KK|KY|L|LD|LH|LM|LS|MH|MN|MO|OY|RN|SO|T|W|WH|WX|WW 	
	

%% 
PREVYEARS   {printf("Years working!");} 
RECENTYEARS {printf("Years 2 working!");}
COUNTIES1   {printf("Counties 1 working!");}
COUNTIES2   {printf("counties 2 working!");}

PREVYEARS[-]COUNTIES1[-][0-9]{1,6}      {num[0] = yytext[0]; num[1] = yytext[1]; year = 1900 + atoi(num); 
                                            printf("%d\n", currentyear-year);}  
RECENTYEARS[-]COUNTIES2[-][0-9]{1,6}    {} 
%%

int main()
{
  yylex();
  return 0;
}
