%%
.  {printf("%s", yytext);}
\n {printf("\n");}
\*\*.* {}
\{[^\}]*\}  {}
\{[^}\r]*    {printf("syntex error\n"); exit(0);}
\".*\"  {printf("%s",yytext);}
%%
int main(){
yylex();
return 0;
}
