%{
int countEven=0;
int no;
%}
%%
[0-9]+*[2|4|6|8]+ {no = atoi(yytext); if(no%2 == 0) ; countEven++;}

. {}
\n {}
%%
int main(){
yylex();
printf("There are %d even numbers" ,countEven);

return 0;
}


