%{
int nonEmpty = 0;
int valid = 0;
int number;
int year;
int time;
%}

YEAR87 [90][0-9]|[8][7-9]|[1][0-2]
YEAR13 [1][3-8][1|2]
COUNTY13 C|CE|CN|CW|D|DL|G|KE|KK|KY|L|LD|LH|LM|LS|MH|MN|MO|OY|RN|SO|T|W|WH|WX|WW
COUNTY87 C|CE|CN|CW|D|DL|G|KE|KK|KY|L|LD|LH|LK|LM|LS|MH|MN|MO|OY|RN|SO|TN|TS|W|WD|WH|WX|WW
NUMBER [0-9]{1,6}

%%

({YEAR87})([-])({COUNTY87})([-])({NUMBER}) { valid = 1; int year = atoi(strtok(yytext, "-")); time = 18 - year; if (time < 0) { time += 100; } }
({YEAR13})([-])({COUNTY13})([-])({NUMBER}) { valid = 1; int year = atoi(strtok(yytext, "-")); if (year >= 100) { year = year/10; } time = 18 - year; if (time < 0) { time += 100; } }

[' '\r\t] {}

. {nonEmpty = 1;}

[\n] { if((valid == 0)&&(nonEmpty == 0)) { printf("%d\n", time); time = -1;} else if(nonEmpty == 1) { printf("INVALID\n"); nonEmpty = 0; } valid = 0; }




%%

int main()
{
  yylex();
  return 0;
}
