%{
#include "romcalc.tab.h"
void yyerror(char *s);
%}

%%
"+"	{ return ADD; }
"-"	{ return SUB; }
"*"	{ return MUL; }
"/"	{ return DIV; }
[I]  { yylval = 1; return I; }
[V]  { yylval = 5; return V; }
[X]  { yylval = 10; return X; }
[L]  { yylval = 50; return L; }
[C]  { yylval = 100; return C; }
[D]  { yylval = 500; return D; }
[M]  { yylval = 1000; return M; }
[\n] { return EOL;}
[ \s] { }
.	{ printf("syntax error\n");
	 exit(0);}
%%
