/* Companion source code for "flex & bison", published by O'Reilly
 * Media, ISBN 978-0-596-15597-1
 * Copyright (c) 2009, Taughannock Networks. All rights reserved.
 * See the README file for license conditions and contact info.
 * $Header: /home/johnl/flnb/code/RCS/fb1-5.l,v 2.1 2009/11/08 02:53:18 johnl Exp $
 */

/* recognize tokens for the calculator and print them out */

/*
"+"	{ return ADD; }
"-"	{ return SUB; }
"*"	{ return MUL; }
"/"	{ return DIV; }
"|"     { return ABS; }
[0-9]+	{ yylval = atoi(yytext); return NUMBER; }
*/

%{
# include "roman.tab.h"
void yyerror(char *s);
%}

%%
I { printf("%s\n", yytext); return SYMBOL; }
V { printf("%s\n", yytext); return SYMBOL; }
M { printf("%s\n", yytext); return SYMBOL; }
C { printf("%s\n", yytext); return SYMBOL; }
X { printf("%s\n", yytext); return SYMBOL; }

\n      { return EOL; }
[ \t]   { /* ignore white space */ }
. {yyerror("mystery\n");}
