%{
     	#include <stdlib.h>
	int currentyear = 2018;
     	int number =0;
     	int answer1 =0;
	
	


%}

YEAR [0-9]{2,3}
REG [0-9]{1,6}
COUNTY [A-Z]{0,2}
DASH   [\-]

   	
%%

[ \t\n]+ 
{YEAR}
{DASH}{COUNTY}{DASH}{REG} {printf( "YAY YEAR %s\n", yytext );
				 
				}
.           printf( "Unrecognized character: %s\n", yytext );


%%

int main()
{
     yylex();
   
   
}
