%{
     	#include <stdlib.h>
	int currentyear = 2018;
     	int number =0;
     	int answer1 =0;
	
	


%}

YEAR [0-9]{2,3}
REG [0-9]{0,6}
COUNTY D|LM|C|G
DASH   [\-]

   	
%%

 
{YEAR}{DASH}{COUNTY}{DASH}{REG}    printf( "YAY YEAR %s\n", yytext );
[ \t\n]+
				 
				
.           


%%

int main()
{
     yylex();
   
   
}
