%{
     	int currentyear = 2018;
     	int number =0;
     	int answer1 =0;
REG [0-9]{1,6}
COUNTY [A-Z]{1,2}
YEAR [0-9]{2,3}


%}
     	
%%

/*[0-9]{2}1|2  { number= strlen(yytext);
		    if(number>86){
			answer1=currentyear-(number+1900)}
		    else if (number>99){
				answer1=currentyear-(number+2000)}		} }
[0-9]{2}	{ number= strlen(yytext);
		    if(number>86){
			answer1=currentyear-(number+1900)}
		    else if (number>99){
				answer1=currentyear-(number+2000)}*/		}

.           printf( "Unrecognized character: %s\n", yytext );
/n
{YEAR}{COUNTY}{REG} 
				


%%

int main()
{
     yylex();
     
}
