%{
     	int currentyear = 2018;
     	int number =0;
     	int answer1 =0;
}%
REG [0-9]{1,6}
COUNTY [A-Z]{1,2};
YEAR [0-9]{2,3};

   	
%%
.           printf( "Unrecognized character: %s\n", yytext );
/n
{YEAR}
{COUNTY}
{REG} 
				


%%

int main()
{
     yylex();
     
}
