%{
     	#include <stdlib.h>
	int currentyear = 2018;
     	int number =0;
     	int answer1 =0;
%}

REG [0-9]{1,6}
COUNTY [A-Z]{1,2};
YEAR [0-9]{2,3};

   	
%%
.           printf( "Unrecognized character: %s\n", yytext );
[ \t\n]+ 
{YEAR}        printf( "YAY %s\n", yytext );
{COUNTY}	 printf( "YAY %s\n", yytext );
{REG} 		 printf( "YAY %s\n", yytext );
-
				


%%

int main()
{
     yylex();
     
}
