%{
     	#include <stdlib.h>
	int currentyear = 2018;
     	int number =0;
     	int answer1 =0;
%}

REG [0-9]{1,6};
YEAR [0-9]{2,3};


   	
%%

[ \t\n]+ 
{YEAR}		 printf( "YAY YEAR %s\n", yytext );
[A-Z]{0,2}	 printf( "YAY LETTER %s\n", yytext );		
[\-]		printf( "YAY dash %s\n", yytext );
.           printf( "Unrecognized character: %s\n", yytext );


%%

int main()
{
     yylex();
     
}
