%%
"**".*                     			{}
"{"[^}]*"}"      		  		{}
[\"].*[\"]					{printf(yytext);}
"{"[^}]*"end."              		      	{printf("syntax error\n");
                                                exit(EXIT_SUCCESS);}
[.*^{][\"].*[\"]"}"                  		{printf("syntax error\n");
                                                exit(EXIT_SUCCESS);}

%%

int main(){
        yylex();
        return 0;
}

