%%
"**".*                     			{}
"{"[^{}]*"}"      		  		{}

"{"[^{}]*[EOF{]                    {printf("syntax error\n");
                                                exit(EXIT_SUCCESS);}

%%

int main(){
        yylex();
        return 0;
}

