%{
	int new_base = 18;
	int old_base = 2018;
%}

PRE_2013 (8{1}[7-9]{1}) | (9{1}[0-9]{1}) | (1{1}[0-2]{1})
POST_2013 (1[3-8]{1}[1-2]{1})

COUNTIES_PRE_2013 (-(C|CE|CN|CW|D|DL|G|KE|KK|KY|L|LD|LH|LM|LS|MH|MN|MO|OY|RN|SO|TN|TS|W|W|WH|WX|WW)-)
COUNTIES_POST_2013 (-(C|CE|CN|CW|D|DL|G|KE|KK|KY|L|LK|LD|LH|LM|LS|MH|MN|MO|OY|RN|SO|T|W|WH|WX|WW)-)

NUMBER ([0-9]{1,6})

OLD_REG ({PRE_2013}{COUNTIES_PRE_2013}{NUMBER})
NEW_REG ({POST_2013}{COUNTIES_POST_2013}{NUMBER})

%%
[\t\n]*{NEW_REG}[\t\n]*	{int age = new_reg_age(*yytext); printf("%d\n", age);}
[\t\n]*{OLD_REG}[\t\n]*		{int age = old_reg_age(*yytext); printf("%d\n", age);}
[\t\n]*.+[\t\n]*			{printf("INVALID\n");}
%%
int main() {
	yylex();
	return 0;
}

int old_reg_age(char* text) {
	char year[2];
	strncpy(year, text, 2);
	int years = atoi(year);
	if(years > 12) { 
		years = years + 1900;
	}
	else {
		years = years + 2000;
	}

	int age = old_base - years;
	return age;
}

int new_reg_age(char* text) {
	char year[2];
	strncpy(year, text, 2);
	int years = atoi(year);
	int age = new_base - years;
	return age;
}
