%{

%}

%%

\*{2}[^\n]* {/*Do nothing*/}
\{[^\}]*\}  {/*Do nothing*/}
\"[^\"]*\"  {printf(yytext);}
\{  {printf("syntax error\n"); return -1;}
\}  {{printf("syntax error\n"); return -1;}
\"  {printf("syntax error\n"); return -1;}

%%

int main()
{
  yylex();
  return 0;
}

