%{
char year[]={};
int year1=0; //1987-1999
int year2=0; //2000-2012
int present=2018;
int add1=1900;
int add2=2000;
int reg=0;
%}


%%
[1][3-8][1-2]-(C|CE|CN|CW|D|DL|G|KE|KK|KY|L|LD|LH|LM|LS|MH|MO|OY|RN|SO|T|W|WH|WX|WW)-[0-9]{1,6} {
                              memcpy(year,&yytext[0],2);
                              if(year[0]=='1')
                                //year1=atoi(year);
                                year1+=add2;
                                reg=present-year1;
                             }
([89][0-9]|[0][0-9]|[1][0-2])-(C|CE|CN|CW|D|DL|G|KE|KK|KY|L|LK|LD|LH|LM|LS|MH|MO|OY|RN|SO|TN|TS|W|WD|WH|WX|WW)-[0-9]{1,6} {
                                                   memcpy(year,&yytext[0],3);
                                                   if(year[0]=='0' || year[0]=='1'){
                                                     year2=1;
                                                   }
                                                    if(year2==1){
                                                      //year1=atoi(year);
                                                      year1+=add2;
                                                      reg=present-year1;
                                                   }
                                                   if(year[0]='8' || year[0]=='9'){
                                                      year2=0;
                                                   }
                                                    if(year2==0){
                                                      //year1=atoi(year);
                                                      year1+=add1;
                                                      reg=present-year1;
                                                    }
                                                    printf("%d\n",reg);
                                                  }
[ \t\n] {}
. {}


%%

int main(){
yylex();
return 0;
}

