%{
#include <stdlib.h>
#include <stdio.h>
#include <string.h>

extern int yylex();
extern int yyparse();
extern int yywrap();

void yyerror(const char *s);

int valid = 1;
%}

%union {
	int num;
}

%token ONE
%token FOUR
%token FIVE
%token NINE
%token TEN
%token FOURTY
%token FIFTY
%token NINETY
%token HUNDRED
%token FOURHUNDRED
%token FIVEHUNDRED
%token NINEHUNDRED
%token THOUSAND
%token EOL

%type <num> number letters

%%

numberList:
	| EOL
	| number EOL        {if(valid)printf("%d\n",$1);};
	;

number: letters
	| number letters		{if($2>=$1||(float)$1/$2)valid = 0;$$ = $1 + $2;}
	;

letters: ONE					{$$ = yylval.num;}
	| FOUR							{$$ = 4;}
	| FIVE							{$$ = yylval.num;}
	| NINE 							{$$ = 9;}
	| TEN								{$$ = yylval.num;}
	| FOURTY						{$$ = 40;}
	| FIFTY							{$$ = yylval.num;}
	| NINETY						{$$ = 90;}
	| HUNDRED						{$$ = yylval.num;}
	| FOURHUNDRED				{$$ = 400;}
	| FIVEHUNDRED				{$$ = yylval.num;}
	| NINEHUNDRED       {$$ = 900;}
	| THOUSAND					{$$ = yylval.num;}
 	;


%%

int main() {
	yyparse();
	return 0;
}

void yyerror(const char *s) {
	printf("Error: %s\n", s);
	exit(-1);
}
