
/* Defintions */
%{

%}

NEW_COUNTY C|CE|CN|CW|D|DL|G|KE|KK|KY|L|LD|LH|LM|LS|MH|MN|MO|OY|RN|SO|T|W|WH|WX|WW
OLD_COUNTY C|CE|CN|CW|D|DL|G|KE|KK|KY|L|LK|LD|LH|LM|LS|MH|MN|MO|OY|RN|SO|TN|TS|W|WD|WH|WX|WW


/* Rules */
%%

 //(1)[3-8][1-2](\-){NEW_COUNTY}(\-)[1-9][0-9]{0-5}
[\n|\s\ |  ]*[1][3-8][1-2][\-]{NEW_COUNTY}[\-][1-9][0-9]{0,5}[\n|\s\ |  ]* {

  int year = yytext[1] - '0';
  int yearsOld = 8-year;
  printf("%d\n", yearsOld);
}

[\n|\s\ |	]*[0-9][0-9][\-]{OLD_COUNTY}[\-][1-9][0-9]{0,5}[\n|\s |	]* {

  int decade = yytext[0] - '0';
  decade = decade*10;
  int year = yytext[1] - '0';
  year = year + decade;
  printf("Years %d\n", year);
  int yearsOld =0;

  if (year > 86)
  {
    yearsOld = 100 - year;
    yearsOld += 18;
  }
  else if (year == 12)
  {
    yearsOld = 6;
  }
  else
  {
    yearsOld = 0;
    yearsOld = 18 - year;
  }

  printf("%d\n", yearsOld);
}

[\n|\s\ |	]*.[\n|\s\ |	]* {printf("INVALID\n");}

%%
/* User code */
int main()
{
  yylex();
	return 0;
}

