96 0.119718 14310640
96 0.533333 15314665
98 0.25 15315353
95 0.21519 15315653
55 1 15316382
88 0.465517 15316452
86 0.42 15316723
92 0.517857 15317173
94 0.533333 15324573
87 0.508475 15324631
62 0.212121 15325054
87 0.263158 15328097
83 0.204819 15328647
100 0.236842 15334636
100 0.296296 16308185
86 0.454545 16309095
92 0.175926 16316349
96 0.382979 16316417
94 0.517857 16316482
91 0.701149 16316570
79 0.195402 16317100
88 0.411765 16317188
96 0.261538 16317508
98 0.254237 16317533
96 0.253333 16317724
89 1 16318082
85 1 16318274
97 0.263889 16318376
95 0.333333 16318514
96 0.296296 16319138
96 0.278481 16319250
86 0.272727 16319781
96 0.156463 16319782
86 0.416667 16320018
89 0.175926 16320089
86 1 16320175
97 0.106667 16320187
80 0.152381 16320343
93 0.701149 16320390
74 0.188406 16321035
84 1 16321184
89 1 16321304
98 0.254237 16321320
88 0.222222 16321521
79 0.3 16321855
100 0.164286 16322047
77 0.489583 16322277
94 0.410714 16322468
87 0.305085 16322565
98 0.253521 16322926
100 0.42 16323205
74 0.465347 16323797
97 0.165049 16324085
82 0.423729 16324334
95 0.261905 16324838
99 0.45614 16325349
93 1 16325614
85 1 16325830
95 0.26506 16326332
98 0.45614 16326505
80 0.454545 16327446
95 0.204819 16328717
97 0.279412 16328870
100 1 16329561
86 0.436364 16331452
76 0.410714 16336977
74 0.173333 16339367
100 0.223881 16339490
87 1 16339746
80 0.45614 16339868
88 0.318681 18315410
