16321842/1,24
15335849/1,37
16317508/1,69
16329561/1,75
16328717/1,73
16331074/1,24
16319782/1,78
16320089/1,62
16324334/1,61
16339490/1,85
16339746/1,48
16324838/1,73
15316452/1,72
16316417/1,61
16321521/1,74
16309095/1,75
16321035/1,49
16320175/1,63
16317188/1,78
16317724/1,69
16331867/1,19
15316723/1,65
16327446/1,74
16327673/1,46
16325830/1,60
16325955/1,65
15314665/1,53
16332004/1,51
15315353/1,58
16330158/1,64
16331452/1,56
16320977/1,85
15320848/1,16
16318514/1,78
16321855/1,71
15319250/1,53
16317224/1,70
16325614/1,50
16322468/1,70
16317123/1,63
16339868/1,47
16305510/1,63
16320018/1,73
15324573/1,72
15324090/2,45
16319138/1,63
16319250/1,66
16326230/1,49
16322047/1,80
16325349/1,73
16308185/1,80
16324085/1,66
16320187/1,53
16321445/1,53
16317100/1,66
15328097/1,61
16327810/1,74
16320343/1,65
16321190/1,54
16323797/1,78
15334636/2,74
16316482/1,81
15316382/1,0
16325155/1,58
16324528/1,43
16325409/1,53
15324631/1,74
16323205/1,75
16317533/1,75
16326332/1,66
15325054/1,57
16340036/1,22
15315653/1,58
16321320/1,85
16323766/1,51
16328966/1,68
16318649/1,62
16326505/1,80
16336977/2,75
16339367/1,64
16328870/1,79
16320390/1,63
16316570/2,65
16322277/1,63
16336726/1,50
16318376/1,38
16319781/1,59
16316349/1,71
16319050/1,45
16321184/1,79
16318274/1,47
16322565/1,78
16322926/1,67
16327111/1,53
16324322/1,63
16321304/1,62
16318082/1,53
15317173/1,67
14310640/2,75
