%{
#include <stdio.h>
#define end
int year=0;
int county=0;
int number=0;
int length;
int i;
int x;
int result;
char yearYY[2];
const char *countyList[] = {"C","CE","CN","CW","D","DL","G","KE","KK","KY","L","LD","LH","LM","LS","MH","MN","MO","OY","RN","SO","T","W","WH","WX","WW"};
const char *oldCountyList[] = {"C","CE","CN","CW","D","DL","G","KE","KK","KY","L","LD","LH","LK","LM","LS","MH","MN","MO","OY","RN","SO","TN","TS","W","WD","WH","WX","WW"};
const char *yearList[] = {"131","132","141","142","151","152","161","162","171","172","181","182"};

%}

end \n|\t|" "

%%



[" " | .*]*[0-9]{2,3}[-]	{length=yyleng-1;
				char yearReg[length];
				strncpy(yearReg, yytext, length);
				x = atoi(yearReg);
				if(length == 3){
				strncpy(yearYY,yytext,2);
					for(i=0; i<12; i++){
						if(strcmp(yearReg,yearList[i]) == 0){
							year=1;
							printf("correct car year YYY\n");} 
				}
				}
 
				else if(length == 2){
					if(x>=87 && x<=99 || x>00 && x<=12){
						year=1;
						printf("correct car year YY\n");} 
			
		    }
		}
		
[a-zA-Z]*[^-]	{if(x>=131 && x<=182){
			for(i=0; i<26; i++){
			if (strcmp(yytext, countyList[i]) == 0) {
		 		printf("correct county\n");
		 		county = 1;}
				     	}
			 }	
		else if(x>=87 && x<=99 || x>=00 && x<=13) {
			for(i=0; i<26; i++){
			if (strcmp(yytext, oldCountyList[i]) == 0) {
		 		printf("correct county\n");
		 		county = 1;}
				     	}
							}
		}	
[-][0-9]{1,6}{end}+ {printf("correct car sequence\n");
		   number = 1;

			if(county == 1 && year == 1 && number == 1){
				if(x >= 00 && x<=12){
					result = 18 - x;}
				else if( x>=131 && x<=182 ){
					int y;
					y =atoi(yearYY);
					/*printf("YY: %d\n", y);*/
					result = 18 - y;}
				else{
				result = (100 - x) + 18;}
				printf("%d \n", result );
					
		  	}
			else{
			
				printf("INVALID\n");}
				

			county=0;
			year=0;
			number=0;
			}


" "+		{ printf("space\n");}
\t+		{ printf("new line\n");}

%%

int main(int argc, char *argv[])
{
  yylex();
  return 0;
}
