rex1  [0-9]{2,3}"-"[A-Z]{1,2}"-"[0-9]{1,6}
rex2  [^\S\n]
rex3  [^\s*$]
%%


\n    {}
\t    {}
[ ]*  {}
{rex1}	{
		char year[] = "    ";
    year[2] = yytext[0];
    year[3] = yytext[1];
    if((year[2] - '0') < 5) {
        year[0] = '2';
        year[1] = '0';
    }
    else {
        year[0] = '1';
        year[1] = '9';
    }
    int result = 2018 - atoi(year);
		
if(result != 30) {
        printf("%d\n", result);
    }
	else {
	 printf(" %d\nsd", (30));

}
	
}
{rex2} {}
{rex3} {}


%%

int main()
{
  yylex();
	return 0;
}
