%{
const char *oldREG[4];
const char *newREG[26];
%}

rex1  [0-9]{2,3}"-"[A-Z]{1,2}"-"[0-9]{1,6}
rex2  [^\S\n]
rex3  [^\s*$]
%%


\n    {}
\t    {}
[  ]*  {}
{rex1}	{
	
	char year[] = "    ";
    	year[2] = yytext[0];
    	year[3] = yytext[1];
    	if((year[2] - '0') < 5) {
        	year[0] = '2';
        	year[1] = '0';
    	}
    	else {
        	year[0] = '1';
        	year[1] = '9';
    	}
	
	int fullYear = atoi(year);
    	int result = 2018 - fullYear;
	char delim[] = "-";
	char *ptr = strtok(yytext, delim);
	char *sec[3];
	
	
	int i =0;
	while(ptr != NULL)
	{
		sec[i] = ptr;	
		ptr = strtok(NULL, delim);
		i++;
	}
	if(atoi(sec[2]) < 999999){
	if(fullYear <= 2013) {
		int i = 0;
		int isReg = -1;

		while(i < 26) {
			if(strcmp(newREG[i], sec[1])) {
        			isReg = 0;
    			}
     			i++;
		}

		
		i = 0;
		while(i < 4) {
			if(strcmp(oldREG[i], sec[1])) {
        			isReg = 0;
    			}
			i++;
		}

		if(!strcmp(newREG[22], sec[1])) {
			printf("GS");
			isReg = -1;
		}
		if(isReg==0) {
        		printf("%d\n", result);
    		}
		else {
			printf("INVALID\n");
		}

		
		
	}
	else {		
		int i = 0;
		int isReg = -1;

		while(i < 26) {
			if(strcmp(newREG[i], sec[1])) {
        			isReg = 0;
    			}
     			
			i++;
		}

		
		if(isReg==0) {
        		printf("%d\n", result);
    		}
		else {
			printf("INVALID\n");
		}

	}
	}
   	
	
}
{rex2} {}
{rex3} {}


%%

int main()
{
	oldREG[0] = "LK";
	oldREG[1] = "TN";
	oldREG[2] = "TS";
	oldREG[3] = "WD";
	newREG[0] = "C";
	newREG[1] = "CE";
	newREG[2] = "CN";
 	newREG[3] = "CW";
	newREG[4] = "D";
 	newREG[5] = "DL";
   	newREG[6] = "KE";
   	newREG[7] = "KK";
   	newREG[8] = "G";
   	newREG[9] = "KY";
   	newREG[10] = "L";
   	newREG[11] = "LH";
   	newREG[12] = "LM";
   	newREG[13] = "MN";
   	newREG[14] = "WW";
   	newREG[15] = "LD";
   	newREG[16] = "LS";
   	newREG[17] = "MH";
   	newREG[18] = "MO";
   	newREG[19] = "OY";
   	newREG[20] = "RN";
   	newREG[21] = "SO";
   	newREG[22] = "T";
   	newREG[23] = "W";
   	newREG[24] = "WH";
   	newREG[25] = "WX";
	
  	yylex();
	return 0;
}

