%{
char *oldReg[4][2];
char *newReg[20];
%}

rex1  [0-9]{2,3}"-"[A-Z]{1,2}"-"[0-9]{1,6}
rex2  [^\S\n]
rex3  [^\s*$]
%%


\n    {}
\t    {}
[  ]*  {}
{rex1}	{
	char year[] = "    ";
    	year[2] = yytext[0];
    	year[3] = yytext[1];
    	if((year[2] - '0') < 5) {
        	year[0] = '2';
        	year[1] = '0';
    	}
    	else {
        	year[0] = '1';
        	year[1] = '9';
    	}
	
	int fullYear = atoi(year);
    	int result = 2018 - fullYear;

		
     	if(result != 16) {
		printf("%s\n", oldReg[0]);
        	printf("%d\n", result);
    	}
	else {
	}
   
	
}
{rex2} {}
{rex3} {}


%%

int main()
{
	oldReg[0] = "LK";
	oldReg[1] = "TN";
	oldReg[2] = "TS";
	oldReg[3] = "WD";
  	yylex();
	return 0;
}

