rex1  [0-9]{2,3}"-"[A-Z]{1,2}"-"[0-9]+
rex2  [^\S\n]
rex3  [^\s*$]
%%



{rex1}	{
		char year[] = "    ";
    year[2] = yytext[0];
    year[3] = yytext[1];
    if((year[2] - '0') < 5) {
        year[0] = '2';
        year[1] = '0';
    }
    else {
        year[0] = '1';
        year[1] = '9';
    }
    int result = 2018 - atoi(year);
		printf("%d\n", result);
}
{rex2} {}
{rex3} {}



%%

int main()
{
  yylex();
	return 0;
}

