%{
	char* txt;
	const char* delim = "-";
	char* token;
	int year;
	int isOld;
%}
%%
[0-9]{2,3}"-"[A-Z]{1,2}"-"[0-9]{1,} { 	txt = yytext;
					token = strtok(txt, delim);
					year = atoi(&token[0]);
					if(strlen(&token[0])== 2){
						printf("%d", strlen(&token[0]));
					}
					}
%%
int main(){
	yylex();
	return 0;
}
