%%
[0-9][0-9][0-9]"-"    {         int val = atoi(yytext);
                                int val2 = atoi("-");
                                val = val-val2;
                                if(val%2 == 1){
                                        val -= 1;
                                        val /= 10;
                                        val += 2000;
                                        val = 2018-val;
                                        printf("%d\n",val);
                                }
                                else if(val%2 == 0){
                                        val -= 2;
                                        val /= 10;
                                        val += 2000;
                                        val = 2018-val;
                                        printf("%d\n",val);
                                }
                                }
[0-9][0-9]"-"                   {int val = atoi(yytext);
                                        int val2 = atoi("-");
                                        val = val-val2;
                                        if(val >= 87 && val <= 99){
                                                val += 1900;
                                                val = 2018-val;
                                                printf("%d\n",val);
                                        }
                                        else if(val >= 0 && val <= 12){
                                                val += 2000;
                                                val = 2018-val;
                                                printf("%d\n",val);
                                        }
                                        }

[^0-9]				{}
"-"[0-9]*			{}				
%%
int main(){
        yylex();
        return 0;
}

