%{
int open =0;
int error = 0;
%}



%%
"{"		{open =1;}
"}"		{if (open > 0) {open = 0;}
		else {error = 1;}	}
"**".* 	{}
[a-zA-Z]+	{if(open ==0 && error =0) {printf("%s", yytext);}}
\n			{if(open ==0 && error =0) {printf("%s", yytext);}}
.			{if(open ==0 && error =0) {printf("%s", yytext);}}
%%

int main()
{
  yylex();
  printf("%d\n",non_comments);
  return 0;
}	
