%{
#include <math.h>
    

    int year3 = 182;
    int year = 18;
    int age;
%}

%%

1(31|32|41|42|51|52|61|62|71|72|81|82)              {int num = atoi(yytext); age = year3 - num; }       // take in 3 digit year
[87-99]                                             {int num = atoi(yytext); 
                                                    age = 100 - num;
                                                    age+= year;}        //search from year 87 to 99
[0-12]                                              {int num = atoi(yytext); age = year3 - num; }    //search from year 0 to 12
[]
%%

int main()
{
  printf("INVALID\n");
  yylex();
  return 0;
}
