/*comment remover*/

%{
    
%}



%%

\*{2}.*   				{ }     /* single line ** */
["]+.*["]+				{printf("%s",yytext);}
[^{]*[}]+				{printf("syntax error\n"); return 0;}
[{][^}]*				{printf("syntax error\n"); return 0;}
[{][^}]*[}]*				{ }	/* multiline and single line */



%%

int main(int argc, char *argv[])
{
  yylex();
  return 0;
}
