%{
	int bracketCounter = 0;
%}


%%
[{][A-z0-9 ]+\n*[}]	{/*printf("nice");*/}
[**][A-z0-9 ]+		{/*printf("Asterisk Comment");*/}
[A-z0-9 ]+			{printf(yytext);}
\n				{}
.				{}
%%


int main()
{
	yylex();
	printf("%d\n", bracketCounter);
	return 0;
}
