%{
	int bracketCounter = 0;
%}


%%

[{][A-z ]+\n*[}]	{printf("nice");}
[**][A-z]+		{printf("Asterisk Comment");}
\n				{}
.				{}
%%


int main()
{
	yylex();
	printf("%d\n", bracketCounter);
	return 0;
}
