%{

%}

%%

[*]{2}.*  	{}
[{](.*\n)*[}]+ {}
[{](\n.*)*[}]+ {}
["].*["] {printf("%s",yytext);}
[}]         {printf("syntax error"); return 0;}
[{]         {printf("syntax error"); return 0;}

%%

int main()
{
  yylex();
	return 0;
}

