%{

%}

%%

[**]{2}(.*)	{}
[{].*[}]  	{}
[{]         {printf("syntax error"); return 0;}
[}]         {printf("syntax error"); return 0;}
\n        {}
.		  	  {}

%%

int main()
{
  yylex();
	return 0;
}

