/* Companion source code for "flex & bison", published by O'Reilly
 * Media, ISBN 978-0-596-15597-1
 * Copyright (c) 2009, Taughannock Networks. All rights reserved.
 * See the README file for license conditions and contact info.
 * $Header: /home/johnl/flnb/code/RCS/fb1-5.y,v 2.1 2009/11/08 02:53:18 johnl Exp $
 */

/* simplest version of calculator */

%{
#  include <stdio.h>
int yylex();
void yyerror(char *s);
%}

/* declare tokens */
%token SYMBOL EOL
%%
fullnumber: sentence EOL;
sentence: SYMBOL { printf("sentence"); }
          | SYMBOL sentence { printf("sym sentence"); }
          ;
%%
int main()
{
  printf("> ");
  yyparse();
  return 0;
}

void yyerror(char *s)
{
  fprintf(stderr, "error: %s\n", s);
}
