%{
char c = '"';
char d = '{';
char b = '}';
char a = '**';
%}
%x C_COMMENT

%%



"{"            { BEGIN(C_COMMENT);}
<C_COMMENT>"}" { BEGIN(INITIAL); }
<C_COMMENT>\n   {}
<C_COMMENT>.    {}
a.*      {}
%%

int main()
{
  yylex();
  return 0;
}
