%x C_COMMENT
%%
"{"+            { BEGIN(C_COMMENT);}
<C_COMMENT>"}"+ { BEGIN(INITIAL); }
<C_COMMENT>\n+  {}
<C_COMMENT>.+    {}
"**".*      {}
["](.*)["] {ECHO;}
%%

int main()
{
  yylex();
  return 0;
}
