%{
	
%}

%%

\{[^/}]*\}  {}  /*Does the curly bois*/
\*\*[^\n]*  {}  /*Does the asterix shit*/
\"[^\"]*\" {printf("%s", yytext);}
\{ { printf("This is a syntax error"); return -1;}
\} { printf("Also a syntax error"); return -1;}
\" {printf("This too is a Syntax Error"); return -1;}

%%

int main()
{
	yylex();
	return 0;
}
