%{
int chars = 0;
int words = 0;
int lines = 0;
int count = 0;
int isValid = 0;
%}

%%
[\r\t] 	{}
[0-9]*{printf(yytext}
[a-zA-Z]+	{}

.		{}

%%

int main()
{
  yylex();
  return 0;
}
