%{
int year;
int difference;
int  valid = 0;
%}

%%
[' '\r\t] 	{}
([90][0-9]|[8][7-9]|[1][0-2]|[1][3-8][1-2])([-])([A-Z][A-Z]?)([-])([0-9][0-9]?[0-9]?[0-9]?[0-9]?[0-9]?) {year = atoi(strtok(yytext, "-")); if(year> 100){year = year/10;}; if(year > 18) {difference = 118 - year;} else {difference = 18 - year;};printf("%s\n", difference);}

[\n] 	{}
.		{}

%%

int main()
{
  yylex();
  if(validCounty == 1 && (validNewYear ==1 || validOldYear ==1))
  {
	printf("%s\n",yytext);
  }
  return 0;
}

