%{
	int currentYear = 2018;
	int year = 0;
%}





%%
\n
[ \t]
"-"[0-9]{1,6}
C|CE|CN|CW|D|DL|G|KE|KK|KY|L|LD|LH|LM|LS|MH|MN|MO|OY|RN|SO|T|W|WH|WX|WW|L|LK|TN|TS|T|W|WD		
[0-9]{2,3}	{year = atoi(yytext); if (year>99){year = year/10;}  if (year<87){year += 2000;}else{year+=1900;} ; year = currentYear-year; printf ("%d\n",year); }
[0-9]{2,3}[^"-"C|CE|CN|CW|D|DL|G|KE|KK|KY|L|LD|LH|LM|LS|MH|MN|MO|OY|RN|SO|T|W|WH|WX|WW|L|LK|TN|TS|T|W|WD"-"[0-9]{1,6}]|[0-9]{2,3}[ \t]|[0-9]{2,3}\n {printf ("INVALID"); }		
"-"



%%

int main()
{
  yylex();
  
  return 0;
}
