%{
	int currentYear = 2018;
	
%}

%%

"-"[0-9]{1,6}		{ }
[0-9]{2,3}	{int year = atoi(yytext); if (year>99){year = year/10;}  if (year<87){year += 2000;}else{year+=1900;} ; year = currentYear-year; printf ("%d\n",year) ; }
[^[0-9]{2,3}"-"[C|CE|CN|CW|D|DL|G|KE|KK|KY|L|LD|LH|LM|LS|MH|MN|MO|OY|RN|SO|T|W|WH|WX|WW|L|LK|TN|TS|T|W|WD]"-"[0-9]{1,6}]		{  printf("INVALID");}
"-"
[ \t]
\n
%%

int main()
{
  yylex();
  
  return 0;
}
