%{

%}


%%
"\"{}*"                       {printf("\"{}\"");}
"**"(.)*                              {}
"{"[^}]*"}"                           {}
"{"                                   {printf("syntax error"); return 0;}
"}"                                   {printf("syntax error"); return 0;}


%%

int main()
{
  yylex();
  return 0;
}
