%{

%}


%%

"**"(.|" ")*  {}
"{"(.|" "\""\n")+"}"  {}
"{\n"(.|" "\""\n")+"}"  {}
"{"(.|" "\""\n")+       {printf("Error\n");return 0;}   
(.|" "\""\n")+"}"       {printf("Error\n");return 0;}   


%%

int main()
{
  yylex();
  return 0;
}
int yywrap()
{
}
