/* comment.l */
%{
	#include<stdio.h>
	int flag = 0;
     	int error = 0;
%}

%%

\"([^\{][^\}])*.*\" ECHO;
\*\*.* ;
\{	{printf("syntax error\n"); exit(0);}
\}	{printf("syntax error\n"); exit(0);}
\{([^}]*\n)*.*\} ;

%%
#include <stdlib.h>
    	
	int main()
{
	yylex();
	return 0;
}
