/* Companion source code for "flex & bison", published by O'Reilly
 * Media, ISBN 978-0-596-15597-1
 * Copyright (c) 2009, Taughannock Networks. All rights reserved.
 * See the README file for license conditions and contact info.
 * $Header: /home/johnl/flnb/code/RCS/fb1-1.l,v 2.1 2009/11/08 02:53:18 johnl Exp $
 */

%{
# include "fb3-1.tab.h"
%}

%%
"I"                             {return ONE;}
"V"                             {return FIVE;}
"X"                             {return TEN;}
"L"                             {return FIFTY;}
"C"                             {return HUNDRED;}
"D"                             {return FIVEHUNDRED;}
"M"                             {return THOUSAND;}
\n                              {return EOL;}
[ \t\r\f\v]+                    {}
.                               {return ERROR;}

%%

int main()
{
  
  yylex();
  return 0;
}
