
%{
#  include <stdio.h>
int yylex ();
void yyerror(char *s);
%}

/* declare tokens */
%token NUMBER
%token EOL
%%
calclist: /* nothing */
 | calclist NUMBER { printf("%d\n", $1);printf("aaaaaaaaaaa"); }
 ; 


%%
int main()
{
  //printf(); 
  yyparse();
  return 0;
}

void yyerror(char *s)
{
  printf("error: %s\n", s);
}



