%{
char plate[11];
int plateIndex = 0;
int y = 0;
int c = 0;
int s = 0;
%}

%%
[[\t]*            {plate[plateIndex] = yytext[0]; plateIndex++;}

%%

int main()
{
yylex();
printf("%s", plate);
return 0;
}
