%{
int years = 0;
char string;
%}
YEAR [0-9]{2}
DASH -
SPACE [\t\n\ ]+
SPACE2 [\t\n\ ]+
INVALIDYEAR [[0-9]{3,}?]|[a-zA-z]
COUNTY CE|CN|CW|DL|KE|KK|KY|LD|LH|LM|LS|MH|MN|MO|OY|RN|SO|W|WH|WX|WW|G|D|L|C|T
NUMBER [0-9]{7,}?
%%


^{YEAR} 	{years = atoi(yytext); if(years > 18) {years = 100-years; years = years + 18;} else {years = 18-years;} printf("%d\n",years);}
	
{SPACE}{YEAR} {years = atoi(yytext); if(years > 18) {years = 100-years; years = years + 18;} else {years = 18-years;} printf("%d\n",years);}
^{INVALIDYEAR}{DASH}				{printf("INVALID\n");}
{DASH}[0-9]+{DASH}				{printf("INVALID\n");}
{DASH}{COUNTY}{DASH}				{printf("valid\n");}
{DASH}[0-9]{7,}				{printf("INVALID\n");}
	

. 		{}
\n 		{}










%%

int main()
{
  yylex();
  return 0;
}
