%{

%}

%%

"\"".*"\""    { printf("%s", yytext); } /* highest precednce */

"**".*        { }

"{"[^}]*"}"   { }

"{"[^}]*      { printf("syntax error\n"); exit(0); }

[^{]*"}"      { printf("syntax error\n"); exit(0); }

%%

int main()
{
  yylex();
  return 0;
}

