%{
#  include <stdio.h>
#  include <stdlib.h>
#  include <string.h>
int yylex();
void yyerror(char *s);
void intToRomanNum(int x, char* result);
%}

/* declare tokens */
%token I II III IV V VI VII VIII IX X XX XXX XL L LX LXX LXXX XC C CC CCC CD D DC DCC DCCC CM M
%token ADD SUB MUL DIV LP RP
%token EOL

%%


calclist: /* nothing */
 | calclist exp EOL {char result[50]; intToRomanNum($2, result); printf("= %s\n", result);}
 ;
exp: factor
 | exp ADD factor { $$ = $1 + $3; }
 | exp SUB factor { $$ = $1 - $3; }
 ;
factor: parenthesis
 | factor MUL parenthesis { $$ = $1 * $3; }
 | factor DIV parenthesis { $$ = $1 / $3; }
 ;

parenthesis: value
| LP exp RP { $$ = $2; }
;

value: term
 | value term { if ($1+$2 > 1000 & $1 < 1000) {yyerror("syntax error\n");}
                     if ($1 != $2 || ($1 >= 1000 && $2 >= 1000))
                     {
                         $$ = $1 + $2;
                     }
                     else
                     {
                         yyerror("syntax error\n");
                     }
                   }

;

term: I {$$ = $1;}
 | II {$$ = $1;}
 | III {$$ = $1;}
 | IV {$$ = $1;}
 | V {$$ = $1;}
 | VI {$$ = $1;}
 | VII {$$ = $1;}
 | VIII {$$ = $1;}
 | IX {$$ = $1;}
 | X {$$ = $1;}
 | XX {$$ = $1;}
 | XXX {$$ = $1;}
 | XL {$$ = $1;}
 | L {$$ = $1;}
 | LX {$$ = $1;}
 | LXX {$$ = $1;}
 | LXXX {$$ = $1;}
 | XC {$$ = $1;}
 | C {$$ = $1;}
 | CC {$$ = $1;}
 | CCC {$$ = $1;}
 | CD {$$ = $1;}
 | D {$$ = $1;}
 | DC {$$ = $1;}
 | DCC {$$ = $1;}
 | DCCC {$$ = $1;}
 | CM {$$ = $1;}
 | M {$$ = $1;}
;

%%
void intToRoman(int x, char* result)
{
	if (x == 0) {
		*result++ = 'Z';
		return;
	}
	if ( x < 0 ) {
		*result++ = '-';
		x *= -1;
	}
	char *hundreds[] = {"", "C", "CC", "CCC", "CD", "D", "DC", "DCC", "DCCC", "CM"};
	char *tens[] = {"", "X", "XX", "XXX", "XL", "L", "LX", "LXX", "LXXX", "XC"};
	char *ones[] = {"", "I", "II", "III", "IV", "V", "VI", "VII", "VIII", "IX"};
	int   size[] = { 0,   1,    2,     3,    2,   1,    2,     3,      4,    2};
	while (x >= 1000) {
		*result++ = 'M';
		x -= 1000;
	}
	strcpy (result, hundreds[x/100]); result += size[x/100]; x = x % 100;
	strcpy (result, tens[x/10]);  result += size[x/10];  x = x % 10;
	strcpy (result, ones[x]);     result += size[x];
	*result++ = '\0';
}

int main()
{
  yyparse();
  return 0;
}

void yyerror(char *s)
{
  printf("%s", s);
  exit(0);
}
