%{
#  include <stdio.h>
int yylex();
int yyparse();
%}

%output "calcwithvariables.tab.c"

/* declare tokens */
%token ADD SUB MUL DIV NUM ID
%token EOL ASSIGN PRINT

%%

calclist: {}
 | calclist inst EOL  			{ }
 ;
 
inst: ID ASSIGN exp {ID = $3;}
 | PRINT ID {printf("%d\n", $2);}
 
exp: factor
 | exp ADD factor { $$ = $1 + $3; }
 | exp SUB factor { $$ = $1 - $3; }
 | unary
 ;

factor: NUM
 | factor MUL NUM { $$ = $1 * $3; }
 | factor DIV NUM { $$ = $1 / $3; }
 | unary
 ;
 
unary: MIN unary {$$ = -$2;}
 | ID
 | NUM

 
%%
void yyerror(char *s){
  printf("%s\n", s);
}