%{

int numbers =0;
int answer1 =0;
%}

%%



[+-]?[0-9]+	{ numbers++; 
		  if( strlen(yytext)% 2 == 0) answer1++;}
[\n]+	     /* eat up whitespace */
[\t]+           /**/



%%

int main()
{
  yylex();
  printf("%n",answer1);
	return 0;
}
