%{
int chars = 0;
int lines = 0;
int numbers =0;
int answer =0;
%}

%%



[+-]?[0-9]+	{ numbers++; 
		  if( strlen(yytext)% 2 == 0||strlen(yytext)==0) answer++;}



%%

int main()
{
  yylex();
  printf("%d\n",answer);
	return 0;
}
