%{

int numbers =0;
int answer1 =0;
%}

%%



[+-]?[0-9]+	{ numbers++; 
		  if( strlen(yytext)% 2 == 0||strlen(yytext)==0) answer1++;}
[ \t]+          putchar( ' ' );




%%

int main()
{
  yylex();
  printf("%d",answer1);
	return 0;
}
