%{

%}

%%
"}"				{printf("syntax error\n");}
"""(.|\n)*"""	{printf("%s", yytext);}
"{"(.|\n)*"}"	{	}
"{"				{printf("syntax error\n");}
"**".*\n		{printf("\n");}
.				{printf("%s", yytext);}
\n				{printf("\n");}
%%

int main(){
	yylex();
	return 0;
}
