%{

%}

%%
"}"						{printf("syntax error\n");}
["]						{printf("quote%s", yytext);}
"{"[^}]*"}"				{	}
"{"						{printf("syntax error\n");}
"**".*\n				{printf("\n");}
.						{printf("%s", yytext);}
\n						{printf("\n");}
%%

int main(){
	yylex();
	return 0;
}
