78 71 11368746
96 222 14310640
76 299 14317323
96 32 15314665
98 75 15315353
95 42 15315653
20 57 15316376
55 135 15316382
88 53 15316452
86 77 15316723
92 139 15317173
59 287 15317601
58 15 15319250
77 136 15321179
82 45 15324090
94 178 15324573
91 318 15324631
62 50 15325054
87 130 15328097
83 70 15328647
100 38 15334636
25 2 15335849
76 31 16305510
100 64 16308185
86 102 16309095
92 128 16316349
96 46 16316417
94 56 16316482
91 67 16316570
79 49 16317100
88 56 16317188
96 353 16317508
98 168 16317533
96 119 16317724
89 323 16318082
85 111 16318274
97 164 16318376
95 106 16318514
85 79 16318649
86 268 16319050
96 32 16319138
96 267 16319250
95 259 16319781
96 86 16319782
86 99 16320018
89 58 16320089
86 33 16320175
97 142 16320187
86 110 16320343
93 76 16320390
74 35 16321035
84 59 16321184
85 328 16321190
89 34 16321304
98 68 16321320
62 111 16321445
88 51 16321521
79 199 16321855
100 29 16322047
77 73 16322277
94 87 16322468
87 16 16322565
98 118 16322926
100 62 16323205
74 33 16323797
97 200 16324085
64 43 16324322
82 232 16324334
17 5 16324528
95 196 16324838
67 66 16325155
99 103 16325349
45 57 16325409
93 61 16325614
85 215 16325830
63 231 16325955
23 6 16326230
95 94 16326332
98 76 16326505
11 6 16327111
80 137 16327446
30 7 16327673
67 61 16327810
95 55 16328717
97 122 16328870
60 84 16328966
100 33 16329561
86 316 16331452
7 6 16332004
33 6 16336726
76 25 16336977
74 57 16339367
100 19 16339490
87 16 16339746
80 220 16339868
88 95 18315410
