96 46 14310640
96 34 15314665
98 19 15315353
95 27 15315653
55 100 15316382
88 30 15316452
86 43 15316723
92 31 15317173
94 25 15324573
91 31 15324631
62 35 15325054
87 34 15328097
83 25 15328647
100 28 15334636
100 25 16308185
86 30 16309095
92 27 16316349
96 38 16316417
94 32 16316482
91 61 16316570
79 32 16317100
88 30 16317188
96 21 16317508
98 20 16317533
96 23 16317724
89 43 16318082
85 38 16318274
97 27 16318376
95 46 16318514
96 26 16319138
96 28 16319250
95 28 16319781
96 75 16319782
86 37 16320018
89 24 16320089
86 56 16320175
97 75 16320187
86 30 16320343
93 61 16320390
74 19 16321035
84 43 16321184
89 56 16321304
98 18 16321320
88 27 16321521
79 28 16321855
100 46 16322047
77 56 16322277
94 26 16322468
87 21 16322565
98 24 16322926
100 43 16323205
74 59 16323797
97 32 16324085
82 26 16324334
95 46 16324838
99 27 16325349
93 38 16325614
85 42 16325830
95 28 16326332
98 28 16326505
80 30 16327446
95 24 16328717
97 21 16328870
100 100 16329561
86 28 16331452
76 26 16336977
74 19 16339367
100 21 16339490
87 42 16339746
80 26 16339868
88 29 18315410
