96 9 14310640
96 20 15314665
98 11 15315353
95 12 15315653
55 17 15316382
88 14 15316452
86 11 15316723
92 13 15317173
94 17 15324573
91 13 15324631
62 15 15325054
87 20 15328097
83 11 15328647
100 12 15334636
100 10 16308185
86 17 16309095
92 11 16316349
96 14 16316417
94 12 16316482
91 17 16316570
79 11 16317100
88 13 16317188
96 10 16317508
98 13 16317533
96 11 16317724
89 17 16318082
85 21 16318274
97 11 16318376
95 12 16318514
96 12 16319138
96 11 16319250
95 13 16319781
96 10 16319782
86 14 16320018
89 10 16320089
86 18 16320175
97 9 16320187
86 13 16320343
93 17 16320390
74 18 16321035
84 17 16321184
89 18 16321304
98 7 16321320
88 11 16321521
79 13 16321855
100 13 16322047
77 15 16322277
94 14 16322468
87 9 16322565
98 11 16322926
100 14 16323205
74 9 16323797
97 12 16324085
82 13 16324334
95 12 16324838
99 12 16325349
93 21 16325614
85 19 16325830
95 8 16326332
98 14 16326505
80 17 16327446
95 7 16328717
97 10 16328870
100 17 16329561
86 11 16331452
76 14 16336977
74 11 16339367
100 11 16339490
87 19 16339746
80 11 16339868
88 12 18315410
