0.175532 -3.5
0.164384 1.66667
0.106061 0.8
1 -3
1 -1
0.113043 -3.16667
1 -27
0.507042 4.2
0.426332 -0.2
0.299435 2.5
0.737113 1.75
0.326241 1.6
0.415094 1.8
0.224138 0.8
0.858824 -15.2
0.415094 -1.2
0.197279 -16.6667
0.305648 3.83333
0.296875 1.16667
0.785714 -0.2
0.858824 -0.166667
0.507042 -1.66667
0.263736 0.833333
0.523013 1.83333
0.28655 3.6
0.4 4.6
0.408537 2.33333
0.207865 3.33333
0.276423 4.83333
1 -4.16667
0.342723 -1.33333
0.282209 2
0.876712 1.5
0.247423 -3.8
0.320388 0.6
0.340426 -1
0.27027 1.5
0.426332 -1.4
0.988889 3.33333
0.341935 -1
0.358209 0.8
0.507353 2.2
0.988889 3.83333
0.200935 -3
0.282828 0.833333
0.342723 -9
1 0
0.408537 0.2
0.507353 1.4
0.296296 3.83333
0.4 3.2
0.27027 1.6
0.228412 3.16667
0.228346 1.8
0.276423 4
0.229592 5.2
0.278146 2.33333
0.828729 5.83333
0.807882 -3.25
0.307143 3.66667
0.222222 -4.5
0.374468 0.5
0.876712 2.66667
0.211806 -4.5
0.296875 0.666667
0.455285 0
0.828729 -7
0.798122 -5.5
0.320388 -5
0.280992 1.5
0.305648 5.66667
0.807882 5.75
0.161826 -4.5
0.299435 5.4
0.202247 -4.16667
0.261146 -7.33333
1 1.33333
0.341935 -0.2
0.253623 -3.16667
0.208122 -2.83333
0.184549 4.83333
0.798122 -12.5
0.416357 -5.4
0.236025 -8.33333
