78 10 11368746
96 13 14310640
76 14 14317323
96 14 15314665
98 12 15315353
95 13 15315653
55 45 15316382
88 16 15316452
86 24 15316723
92 16 15317173
59 11 15317601
58 35 15319250
77 14 15321179
82 18 15324090
94 16 15324573
91 14 15324631
62 12 15325054
87 12 15328097
83 22 15328647
100 14 15334636
25 16 15335849
76 11 16305510
100 24 16308185
86 26 16309095
92 9 16316349
96 16 16316417
94 16 16316482
91 24 16316570
79 10 16317100
88 13 16317188
96 31 16317508
98 10 16317533
96 11 16317724
89 14 16318082
85 11 16318274
97 19 16318376
95 13 16318514
85 14 16318649
86 11 16319050
96 15 16319138
96 11 16319250
95 34 16319781
96 26 16319782
86 15 16320018
89 40 16320089
86 8 16320175
97 18 16320187
86 11 16320343
93 24 16320390
74 40 16321035
84 15 16321184
85 135 16321190
89 14 16321304
98 13 16321320
62 23 16321445
88 13 16321521
79 11 16321855
100 12 16322047
77 35 16322277
94 12 16322468
87 10 16322565
98 19 16322926
100 22 16323205
74 32 16323797
97 14 16324085
64 18 16324322
82 17 16324334
95 19 16324838
67 12 16325155
99 11 16325349
45 14 16325409
93 135 16325614
85 74 16325830
63 15 16325955
23 27 16326230
95 10 16326332
98 14 16326505
80 32 16327446
30 13 16327673
67 18 16327810
95 9 16328717
97 14 16328870
60 23 16328966
100 45 16329561
86 14 16331452
76 14 16336977
74 13 16339367
100 18 16339490
87 74 16339746
80 15 16339868
88 7 18315410
