78 23 11368746
96 11 14310640
76 11 14317323
96 24 15314665
98 24 15315353
95 23 15315653
55 27 15316382
88 40 15316452
86 19 15316723
92 16 15317173
77 19 15321179
82 14 15324090
94 23 15324573
91 13 15324631
62 25 15325054
87 17 15328097
83 13 15328647
100 15 15334636
100 13 16308185
86 11 16309095
92 25 16316349
96 40 16316417
94 20 16316482
91 7 16316570
79 17 16317100
88 14 16317188
96 21 16317508
98 12 16317533
96 17 16317724
89 27 16318082
85 23 16318274
97 17 16318376
95 49 16318514
85 20 16318649
86 11 16319050
96 13 16319138
96 14 16319250
95 25 16319781
96 20 16319782
86 12 16320018
89 17 16320089
86 20 16320175
97 20 16320187
86 25 16320343
93 11 16320390
74 21 16321035
84 27 16321184
85 21 16321190
89 14 16321304
98 6 16321320
88 17 16321521
79 24 16321855
100 17 16322047
77 12 16322277
94 8 16322468
87 12 16322565
98 12 16322926
100 19 16323205
74 22 16323797
97 17 16324085
64 19 16324322
82 17 16324334
95 49 16324838
67 19 16325155
99 19 16325349
45 17 16325409
93 19 16325614
85 23 16325830
63 20 16325955
95 9 16326332
98 14 16326505
80 22 16327446
67 12 16327810
95 6 16328717
97 12 16328870
60 19 16328966
100 27 16329561
86 20 16331452
76 13 16336977
74 15 16339367
100 12 16339490
87 23 16339746
80 12 16339868
88 12 18315410
