/* Companion source code for "flex & bison", published by O'Reilly
 * Media, ISBN 978-0-596-15597-1
 * Copyright (c) 2009, Taughannock Networks. All rights reserved.
 * See the README file for license conditions and contact info.
 * $Header: /home/johnl/flnb/code/RCS/fb1-5.l,v 2.1 2009/11/08 02:53:18 johnl Exp $
 */

/* recognize tokens for the calculator and print them out */

%{
#include "roman.tab.h"
void yyerror(char *s);
%}

%%
[I]  { yyromanlval = 1; return I; }
[V]  { yyromanlval = 5; return V; }
[X]  { yyromanlval = 10; return X; }
[L]  { yyromanlval = 50; return L; }
[C]  { yyromanlval = 100; return C; }
[D]  { yyromanlval = 500; return D; }
[M]  { yyromanlval = 1000; return M; }

[ \t\n]* /* eat whitespace */

.	{ yyerror("Syntax error\n");}
%%
