,"Report ID: RPT-COE-001-SingleHonorsByCourse_v1-1",,,,,,,,,,,,,,,,,,,,,,,,,,,,,,,,,,
,,,,,,,,,,,,,,,,,,,,,,,,,,,,,,,,,,,
"Examination Mark Sheet:  Computer Science and Business - UBMF-BCOM-2F  |  Mark Sheet Generated: 19/06/2018 15:46:06",,,,,,,,,,,,,,,,,,,,,,,,,,,,,,,,,,,
"Course Code:",,,UBMF-BCOM-2F,,,," Course Name:",,,,"Computer Science and Business",,,,,,,,,,,,,,,,,,,,,,,,
"Academic Year:",,,2017/18,,,,"Course Owner:",,,,,,,,,,,,,,,,,,,,,,,,,,,,
"Assessment Stage:",,,"Annuals (Initial Assessment)",,,,,,,,,,,,,,,,,,,,,,,,,,,,,,,,
"Process Status:",,,"Undo Progression, Complete, Incomplete, Confirmed",,,,,,,,,,,,,,,,,,,,,,,,,,,,,,,,
,,,,,,,,,,,,,,,,,,,,,,,,,,,,,,,,,,,
"Course Year: 2 | Number of Students: 26
Sorted by: Student Name in Ascending Order",,,,,,"Overall Result",,,,,,BU2510,,BU2520,,BU2530,,BU2550,,BU2560,,BU2570,,CS2010,,CS2013,,CS2014,,CS2041,,CS2BC1,,"Student Tutor","Student Notes"
"Student Number",,"Student Name",,"Exam 
Num","Route Code",Mark,,"Provisional Grade/
Result","Final 
Grade/
Result","Credits Passed",,"
5",,"
5",,"
5",,"
5",,"
5",,"
5",,"
10",,"
5",,"
5",,"
5",,"
5",,,
16321413/1,,"BANAGA, SETH",,54913,UBMFBCOM-2SF,59,,"PASS II-2","PASS II-2",60,,64,,58,,60,,45,,66,,70,,51,,58,,52,,68,,65,,"Rozenn Dahyot",
16327506/1,,"BARAT, GABRIEL",,40157,UBMFBCOM-2SF,60.08,,"PASS II-1","PASS II-1",60,,55,,62,,70,,50,,69,,60,,50,,67,,59,,67,,62,,"Rozenn Dahyot",
16325722/1,,"BARLOW-LADIAS, MATHIEUX",,20991,UBMFBCOM-2SF,55.83,,"COMP II-2","COMP II-2",60,,58,,58,,37,PC,60,,48,,46,,63,,67,,57,,56,,57,,"Rozenn Dahyot",
16323107/1,,"COLLINS, JACK",,64503,UBMFBCOM-2SF,73.25,,"PASS I","PASS I",60,,60,,73,,75,,73,,74,,70,,90,,67,,63,,73,,71,,"Nina Elizabeth Bresnihan","Book Prize"
16318401/1,,"COMERFORD, CALUM",,44161,UBMFBCOM-2SF,55.08,,"PASS II-2","PASS II-2",60,,40,,41,,41,,56,,49,,56,,70,,62,,57,,65,,54,,"Nina Elizabeth Bresnihan",
16316418/1,,"CONNAUGHTON, DANIEL",,30105,UBMFBCOM-2SF,61.67,,"PASS II-1","PASS II-1",60,,60,,59,,68,,60,,66,,62,,55,,58,,57,,68,,72,,"Nina Elizabeth Bresnihan",
15323062/1,,"DABEK, KAMIL",,17317,UBMFBCOM-2SF,63.67,,"PASS II-1","PASS II-1",60,,66,,60,,65,,63,,65,,62,,60,,59,,66,,73,,65,,"Glenn Strong",
15321682/2,,"DIXON, HALEY",,56475,UBMFBCOM-2SF,70,,"PASS I","PASS I",60,,70,,70,,71,,62,,73,,73,,73,,76,,57,,64,,78,,"David Taylor","Book Prize"
16339513/1,,"DORAN, MATTHEW",,15503,UBMFBCOM-2SF,67.75,,"PASS II-1","PASS II-1",60,,68,,57,,83,,66,,60,,62,,75,,79,,58,,71,,59,,"Vasileios Koutavas",
15328891/1,,"DUFFY, LAUREN",,20488,UBMFBCOM-2SF,50.75,,"COMP II-2","COMP II-2",60,,65,,54,,41,,35,PC,50,,56,,41,,51,,48,,70,,57,,"Diana Wilson",
15326355/2,,"FALLON, KEVIN",,32752,UBMFBCOM-2SF,59.58,,"PASS II-1","PASS II-1",60,,71,,67,,58,,53,,69,,62,,44,,78,,41,,63,,65,,"Dermot William O'dwyer",
16324019/1,,"FARRELLY, KEVIN",,26276,UBMFBCOM-2SF,55.83,,"PASS II-2","PASS II-2",60,,55,,50,,55,,44,,53,,62,,50,,81,,53,,66,,51,,"Myra O'regan",
16318530/1,,"FITZPATRICK, SEAN",,49537,UBMFBCOM-2SF,70.33,,"PASS I","PASS I",60,,66,,64,,67,,64,,58,,68,,83,,75,,78,,72,,66,,"Jonathan Dukes","Book Prize"
16321684/1,,"HARTY, PATRICK",,17750,UBMFBCOM-2SF,63.75,,"PASS II-1","PASS II-1",60,,63,,58,,70,,63,,53,,70,,60,,72,,65,,68,,63,,"Hugh Gibbons",
15317984/1,,"HEALY, JAMES",,19235,UBMFBCOM-2SF,62.83,,"PASS II-1","PASS II-1",60,,57,,62,,67,,64,,58,,60,,61,,69,,56,,69,,70,,"Myra O'regan",
16319103/1,,"KETTLE, AOIFE",,23042,UBMFBCOM-2SF,67.25,,"PASS II-1","PASS II-1",60,,67,,73,,63,,62,,66,,75,,76,,70,,48,,62,,69,,"Hugh Gibbons",
16321208/1,,"KINANE, COLMAN",,38659,UBMFBCOM-2SF,65.92,,"PASS II-1","PASS II-1",60,,61,,59,,71,,65,,63,,70,,72,,68,,57,,62,,71,,"Hugh Gibbons",
16325463/1,,"MASTERSON, DARRAGH",,26220,UBMFBCOM-2SF,62.58,,"PASS II-1","PASS II-1",60,,50,,57,,63,,60,,63,,60,,74,,70,,60,,59,,61,,"Glenn Strong",
16331482/1,,"MCALEER, SINEAD",,49075,UBMFBCOM-2SF,78.75,,"PASS I","PASS I",60,,70,,68,,84,,71,,71,,77,,94,,75,,84,,79,,78,,"Arthur White","Book Prize"
16326511/1,,"MCDONNELL, JOSEPH",,17568,UBMFBCOM-2SF,49.58,,"COMP II-2","COMP II-2",60,,58,,54,,42,,40,,62,,54,,37,PC,60,,54,,48,,49,,"Jonathan Dukes",
16319623/1,,"MCENTEE, CASEY",,58777,UBMFBCOM-2SF,69.58,,"PASS I","PASS I",60,,73,,60,,83,,77,,64,,68,,70,,71,,60,,73,,66,,"Jonathan Dukes","Book Prize"
16319039/1,,"MORAN, STEPHEN",,44140,UBMFBCOM-2SF,77.75,,"PASS I","PASS I",60,,73,,75,,78,,71,,72,,72,,96,,67,,79,,73,,81,,"Glenn Strong","Book Prize"
16321005/1,,"NI DHOMHNAILL, NUALA",,44042,UBMFBCOM-2SF,49.17,,"QF + SUPP","QF + SUPP",40,,46,,53,,64,,38,,60,,57,,33,,71,,32,,48,,55,,"Diana Wilson",
14320108/2,,"QUEALLY, PETER",,18522,UBMFBCOM-2SF,53.08,,"QF + SUPP","QF + SUPP",45,,67,,56,,36,,52,,64,,55,,37,,70,,40,,68,,55,,"Myra O'regan",
16309410/1,,"SACHDEV, DHRUV",,37350,UBMFBCOM-2SF,63.92,,"PASS II-1","PASS II-1",60,,60,,54,,58,,62,,70,,62,,62,,65,,66,,80,,66,,"Rozenn Dahyot",
16319935/1,,"TIMMINS, LUKE",,36979,UBMFBCOM-2SF,62.25,,"PASS II-1","PASS II-1",60,,65,,62,,62,,50,,66,,60,,64,,69,,47,,69,,69,,"Myra O'regan",
,,,,,,,,,,,,,,,,,,,,,,,,,,,,,,,,,,,
,,,,"Course Year 2: Overall Statistics",,Mark,,"Module Statistics",,,,BU2510,,BU2520,,BU2530,,BU2550,,BU2560,,BU2570,,CS2010,,CS2013,,CS2014,,CS2041,,CS2BC1,,,
,,,,,Mean,62.6626923076923,,,,Mean,,61.8461538461538,,60.1538461538462,,62.7692307692308,,57.9230769230769,,62.7692307692308,,63.4230769230769,,63.1153846153846,,68.2692307692308,,57.4615384615385,,66.6923076923077,,64.4230769230769,,,
,,,,,Min,49.17,,,,Min,,40,,41,,36,,35,,48,,46,,33,,51,,32,,48,,49,,,
,,,,,Max,78.75,,,,Max,,73,,75,,84,,77,,74,,77,,96,,81,,84,,80,,81,,,
,,,,,"St. Dev",7.97220599718412,,,,"St. Dev",,8.10773609680191,,7.66651058926971,,13.9062797104263,,11.0088076626784,,7.44745697433798,,7.40903813958642,,17.3881038024896,,7.15853444390787,,11.6901010063413,,7.75509757911133,,8.32429253173182,,,
,,,,,,,,,,,,,,,,,,,,,,,,,,,,,,,,,,,
,,,,,,,,,,,,,,,,,,,,,,,,,,,,,,,,,,,
,"Erasmus Students ",,,,,,,,,,,,,,,,,,,,,,,,,,,,,,,,,,
,,,CS2BC1,,,,,,,,,,,,,,,,,,,,,,,,,,,,,,,,
,,17342978/1,"FOSTER, TIMOTHY",,67,,,,,,,,,,,,,,,,,,,,,,,,,,,,,,
,,17311620/1,"BODACK, DAVID",,63,,,,,,,,,,,,,,,,,,,,,,,,,,,,,,
,,17338636/1,"SHANG, WENYI",,78,,,,,,,,,,,,,,,,,,,,,,,,,,,,,,
,,,,,,,,,,,,,,,,,,,,,,,,,,,,,,,,,,,
,,,,,,,,,,,,,,,,,,,,,,,,,,,,,,,,,,,
,,,,,,,,,,,,,,,,,,,,,,,,,,,,,,,,,,,
,,_________________________,,,,,,,_________________________,,,,,,_________________________,,,,,,,,,,,,,,,,,,,,
,,"Dr Mike Brady",,,,,,,"Dr Hugh Gibbons",,,,,,"Dr Mairead Brady",,,,,,,,,,,,,,,,,,,,
,,"Director of Undergraduate Teaching and Learning",,,,,,,"Course Co-Director",,,,,,"Course Co-Director",,,,,,,,,,,,,,,,,,,,
,,,,,,,,,,,,,,,,,,,,,,,,,,,,,,,,,,,
,,"BU2510: Organisational Behaviour: 5 ECTS: Dr S Cullinana, Dr S Browne (70exam/30cw) No QF",,,,,,,,,,,,"CS2010: Algorithms & Data Structures: 10 ECTS: Dr Ivana Dusparic, Dr Vasileios Koutavas (65exam/35cw) No QF",,,,,,,,,,,,,,,,,,,,,
,,"BU2520: Principles of Marketing : 5 ECTS: Ms Sarah Browne (70exam/30cw) No QF ",,,,,,,,,,,,"CS2013: Programming Project II: 5 ECTS: Dr Inmaculada Arnedillo-Sanchez, Dr C McGoldrick (100cw) No QF",,,,,,,,,,,,,,,,,,,,,
,,"BU2530: Introduction to Accounting: 5 ECTS: Mr Patrick McCabe (75exam/25cw) No QF",,,,,,,,,,,,"CS2014: Systems Programming I: 5 ECTS: Dr Stephen Farrell  (80exam/20cw) No QF ",,,,,,,,,,,,,,,,,,,,,
,,"BU2550: Introduction to Finance: 5 ECTS: Dr Martha O’Hagan Luff (65exam/35cw) No QF",,,,,,,,,,,,"CS2041: Information Management I: 5 ECTS: Dr Declan O’Sullivan (80exam/20cw) No QF ",,,,,,,,,,,,,,,,,,,,,
,,"BU2560: Introduction to Operations Management: 5 ECTS: Dr Richard Keegan (100cw) No QF",,,,,,,,,,,,"CS2BC1: Systems Analysis & Design I: 5 ECTS: Dr David Lewis (80exam/20cw) No QF",,,,,,,,,,,,,,,,,,,,,
,,"BU2570: Creative Thinking, Innovation and Entrepreneurial Action: 5 ECTS: Dr Giulio Buciuni (100cw) No QF",,,,,,,,,,,,,,,,,,,,,,,,,,,,,,,,,
,,,,,,,,,,,,,,,,,,,,,,,,,,,,,,,,,,,
,,"Date of Formal Examination Board: 18th June 2018",,,,,,,,,,,,,,,,,,,,,,,,,,,,,,,,,
,,"Date of Publication: 20th June 2018",,,,,,,,,,,,,,,,,,,,,,,,,,,,,,,,,
