%{
#include <string.h>

int currentYear = 18;
int checkYear;
int yearsOld;
int before2000 = 100;
int oldCar; 
int valid = 1; 
//[-][C|CE|CN|CW|D|DL|G|KE|KK|KY|L|LD|LH|LM|LS|MH|MN|MO|OY|RN|SO|WH|WX|WW|L|LK|TN|TS|T|W|WD][-][0-9]{1,6}
%}

YEAR [0-9]{2}[12]*[-](C|CE|CN|CW|D|DL|G|KE|KK|KY|L|LD|LH|LM|LS|MH|MN|MO|OY|RN|SO|WH|WX|WW|L|LK|TN|TS|W|WD)[-][0-9]{1,6}




%%

{YEAR} {	
		
		checkYear=atoi(yytext); 
		valid = 1;
		if(checkYear > 100){
		checkYear = checkYear / 10;
		}
		if(checkYear > currentYear){
		   oldCar = before2000 -checkYear; 
		   yearsOld = oldCar+currentYear; 
		   printf("%d\n", yearsOld);
		   } 
		else{yearsOld =currentYear-checkYear; printf("%d\n", yearsOld);}
}


\n	  	{}
.	  	{}

%%

int main()
{

	
 

if(valid==0){

	printf("INVALID\n");
	

	}

yylex();

 return 0;
}
