%{
#include <string.h>

int currentYear = 18;
int checkYear;
int yearsOld;
int before2000 = 100;
int oldCar; 
int valid = 0; 

%}

YEAR ^\t*[0-9]{2}[12]*
COUNTY [C|CE|CN|CW|D|DL|G|KE|KK|KY|L|LD|LH|LM|LS|MH|MN|MO|OY|RN|SO|T|WH|WX|WW|]
OLDCOUNTY [L|LK|TN|TS|T|W|WD]
SEQUENCE  [0-9]{1,6}

%%

{YEAR} {	
		
		checkYear=atoi(yytext); 
		if(checkYear > currentYear){
		   oldCar = before2000 -checkYear; 
		   yearsOld = oldCar+currentYear; 
		   printf("%d", yearsOld);
		   } 
		else{yearsOld =currentYear-checkYear; printf("%d", yearsOld);}
}

{COUNTY}	


}

^\n	   {}

.	   {printf}

%%

int main()
{
  yylex();
  return 0;
}

