%{
#include <string.h>
int bracketCount = 0;


%}

%%

[a-zA-Z]+ {if(bracketCount==0) printf("%s", yytext);}
\n	  {if(bracketCount==0) printf("%s", yytext);}
"**".*    {/* do nothing*/}
"{"       {bracketCount = 1;}
"}"	  {bracketCount = 0;}
.	  {if(bracketCount==0) printf("%s", yytext);}



%%

int main()
{

if(bracketCount == 0){
  yylex();
}

else {printf("synatx error\n");
 }
	return 0;
}

