%{
int values[200];
int i = 0;
values[0] = -1



%}

COUNTY C|CE|CW|D|DL|G|KE|KK|KY|L|LD|LH|LM|LS|MH|MN|MO|OY|RN|SO|T|W|WH|WX|WW|L|LK|TN|TS|T|T|WD

%%
(9[1-9]"-"{COUNTY}"-"[0-9]{1,6})		{	 values[i] = (1990 + yytext[1])-48; i++; 	}
(8[1-9]"-"{COUNTY}"-"[0-9]{1,6})		{	 values[i] = (1980 + yytext[1])-48; i++;	}
(0[1-9]"-"{COUNTY}"-"[0-9]{1,6})		{	 values[i] = (2000 + yytext[1])-48; i++;	}
(1[0-2]"-"{COUNTY}"-"[0-9]{1,6})		{	 values[i] = (2010 + yytext[1])-48; i++;	}
(1[3-8][1-2]"-"{COUNTY}"-"[0-9]{1,6})	{	 values[i] = (2010 + yytext[1])-48; i++;	}

\t										{												}
.										{												}


									

%%

int main(){
	yylex();
	int c = 0;
	int j = 0;
	while(j != i){
		if (values[j] == -1)
			{}
		else  if (values[j] == -2)
			printf("INVALID");
		else {
			c = 2018-(values[j]);
			printf("%d\n", c);
		}
		j++;
	}
	return 0;
}
