%{
int values[200];
char i = 0;


%}


%%
(9)[1-9](C|CE|CW|D|DL|G|KE|KK|KY|L|LD|LH|LM|LS|MH|MN|MO|OY|RN|SO|T|W|WH|WX|WW|L|LK|TN|TS|T|T|WD)[1-9]{1,6} 		{	values[i] = "199" + yytext[1]; i++;	}
(8)[1-9](C|CE|CW|D|DL|G|KE|KK|KY|L|LD|LH|LM|LS|MH|MN|MO|OY|RN|SO|T|W|WH|WX|WW|L|LK|TN|TS|T|T|WD)[1-9]{1,6} 		{	 values[i] = "198" + yytext[1]; i++;	}
(0)[1-9](C|CE|CW|D|DL|G|KE|KK|KY|L|LD|LH|LM|LS|MH|MN|MO|OY|RN|SO|T|W|WH|WX|WW|L|LK|TN|TS|T|T|WD)[1-9]{1,6}		{	 values[i] = "200" + yytext[1]; i++;	}
(1)[1-4][1,2](C|CE|CW|D|DL|G|KE|KK|KY|L|LD|LH|LM|LS|MH|MN|MO|OY|RN|SO|T|W|WH|WX|WW|L|LK|TN|TS|T|T|WD)[1-9]{1,6}	{	 values[i] = "201" + yytext[1]; i++;	}
\n 									{	values[i] = "-1"; i++;						}
.*									{	values[i] = "-2";	i++;						}





%%

int main(){
	yylex();
	int n = 0;
	int c = 0;
	while(i != 0){
		if (strcmp(values[n], "-1")==0)
			printf("\n");
		else if (strcmp(values[n], "-2")==0)
			printf("INVALID");
		else {
			
			c = 2018-((int)values[n]);
			printf("%d", c);
		}
	return 0;
	}
}
