%{

%}

QUOTE	["]
%%
"**"[^\n]   		  {} 	
"{"[^}]"}"	  		  {} 
"{"[^}]	  			  {printf("syntax error\n");exit(0);}
"}"	  	  			  {printf("syntax error\n");exit(0);}
{QUOTE}[^{QUOTE}]{QUOTE}	  {printf("%s", yytext);}
.		  			  {printf("%s", yytext);}
\n		  			  {printf("%s", yytext);}

%%

	
 
int main()
{
  yylex();
  return 0;
}
